%YAML 1.1
%TAG !u! tag:unity3d.com,2011:
--- !u!1045 &1
EditorBuildSettings:
  m_ObjectHideFlags: 0
  serializedVersion: 2
  m_Scenes:
  - enabled: 0
    path: Assets/OpenCV+Unity/Demo/MoCap/MoCapScene.unity
    guid: 387123a1163ca734fa96e2cf5a83ff17
  - enabled: 1
    path: Assets/OpenCV+Unity/Demo/Tracking/TrackingScene.unity
    guid: 111a9059ba67efb47a099e5ffbe159c2
  m_configObjects: {}
